img_path,labels,labels_crops,source,status
E:\something\msd\Papers\Learning to Learn from Noisy Labeled Data\MLNT\footweartype\745dca72-f954-58c7-bb9b-f00459e65950.jpg,Pumps,"[27, 146, 330, 353]",FootwearType_v6,train
E:\something\msd\Papers\Learning to Learn from Noisy Labeled Data\MLNT\footweartype\31415d49-3033-55de-80c7-fc54752a27dc.jpg,Pumps,"[57, 69, 466, 396]",FootwearType_v6,train
E:\something\msd\Papers\Learning to Learn from Noisy Labeled Data\MLNT\footweartype\c637b49b-df83-52ae-a832-6a54498cd295.jpg,Pumps,"[29, 177, 443, 388]",FootwearType_v6,train
E:\something\msd\Papers\Learning to Learn from Noisy Labeled Data\MLNT\footweartype\e722f56b-a813-5202-b39a-9761f9a839d1.jpg,Pumps,"[43, 69, 423, 411]",FootwearType_v6,train
E:\something\msd\Papers\Learning to Learn from Noisy Labeled Data\MLNT\footweartype\f5fed1ae-48be-5408-b7db-6bb9c0236218.jpg,Pumps,"[31, 288, 631, 567]",FootwearType_v6,train
E:\something\msd\Papers\Learning to Learn from Noisy Labeled Data\MLNT\footweartype\0c9de1b0-2550-568c-b8e2-47a1a3308239.jpg,Pumps,"[36, 111, 435, 394]",FootwearType_v6,train
E:\something\msd\Papers\Learning to Learn from Noisy Labeled Data\MLNT\footweartype\69845079-7b17-514e-a83c-93734fa72cb0.jpg,Pumps,"[17, 9, 343, 238]",FootwearType_v6,train
E:\something\msd\Papers\Learning to Learn from Noisy Labeled Data\MLNT\footweartype\543d44a6-4afd-59fe-821e-4b73804b7a16.jpg,Pumps,"[19, 155, 309, 388]",FootwearType_v6,train
E:\something\msd\Papers\Learning to Learn from Noisy Labeled Data\MLNT\footweartype\61bc230a-2e66-547b-9d8c-7c0081808bc9.jpg,Pumps,"[49, 110, 296, 338]",FootwearType_v6,train
E:\something\msd\Papers\Learning to Learn from Noisy Labeled Data\MLNT\footweartype\e31c3c4b-f06a-5dee-8924-0f20eb6f3908.jpg,Pumps,"[6, 154, 341, 342]",FootwearType_v6,train
E:\something\msd\Papers\Learning to Learn from Noisy Labeled Data\MLNT\footweartype\ee997a71-6a26-5918-a9bb-8e78a6d0639a.jpg,Pumps,"[29, 3, 252, 200]",FootwearType_v6,train
E:\something\msd\Papers\Learning to Learn from Noisy Labeled Data\MLNT\footweartype\34b1af88-e7df-5e70-a082-4f8480612e67.jpg,Pumps,"[14, 150, 452, 397]",FootwearType_v6,train
E:\something\msd\Papers\Learning to Learn from Noisy Labeled Data\MLNT\footweartype\295766b5-8f85-54a0-b28e-b5e4c7a33d32.jpg,Pumps,"[24, 123, 335, 363]",FootwearType_v6,train
E:\something\msd\Papers\Learning to Learn from Noisy Labeled Data\MLNT\footweartype\84e112aa-f705-5d44-81cf-fe7f1f448436.jpg,Pumps,"[55, 131, 416, 401]",FootwearType_v6,train
E:\something\msd\Papers\Learning to Learn from Noisy Labeled Data\MLNT\footweartype\981918a5-9b33-5289-b810-743cf83e0764.jpg,Pumps,"[25, 187, 298, 341]",FootwearType_v6,train
E:\something\msd\Papers\Learning to Learn from Noisy Labeled Data\MLNT\footweartype\086df15b-f7a7-5d6e-8e47-d3e02426f71a.jpg,Pumps,"[20, 45, 419, 420]",FootwearType_v6,train
E:\something\msd\Papers\Learning to Learn from Noisy Labeled Data\MLNT\footweartype\35bca879-fcf8-5ab5-9555-70bf682f5e76.jpg,Pumps,"[43, 20, 281, 214]",FootwearType_v6,train
E:\something\msd\Papers\Learning to Learn from Noisy Labeled Data\MLNT\footweartype\95ae5039-76ae-5492-878d-e29febc47e1e.jpg,Pumps,"[46, 205, 303, 365]",FootwearType_v6,train
E:\something\msd\Papers\Learning to Learn from Noisy Labeled Data\MLNT\footweartype\2a1cd0c6-9762-5715-a2f7-135e9ec9076a.jpg,Pumps,"[97, 87, 583, 537]",FootwearType_v6,train
E:\something\msd\Papers\Learning to Learn from Noisy Labeled Data\MLNT\footweartype\77f78ac9-1ade-57eb-8aa1-7abd0618a1c7.jpg,Pumps,"[67, 77, 442, 387]",FootwearType_v6,train
E:\something\msd\Papers\Learning to Learn from Noisy Labeled Data\MLNT\footweartype\ccdb458d-9c6c-5a48-8e55-ce658c64733d.jpg,Pumps,"[17, 12, 184, 201]",FootwearType_v6,train
E:\something\msd\Papers\Learning to Learn from Noisy Labeled Data\MLNT\footweartype\ee17e9c2-c760-50f9-befb-c0dc11257c11.jpg,Pumps,"[64, 344, 990, 1213]",FootwearType_v6,train
E:\something\msd\Papers\Learning to Learn from Noisy Labeled Data\MLNT\footweartype\b9c0de0f-145e-5641-91b8-e6f36d2c755c.jpg,Pumps,"[83, 563, 1017, 975]",FootwearType_v6,train
E:\something\msd\Papers\Learning to Learn from Noisy Labeled Data\MLNT\footweartype\5239be14-745e-5ace-95d4-9a7c5575d95e.jpg,Pumps,"[1, 38, 331, 304]",FootwearType_v6,train
E:\something\msd\Papers\Learning to Learn from Noisy Labeled Data\MLNT\footweartype\9fe3fe92-0499-57eb-ac7f-17998c007212.jpg,Pumps,"[0, 36, 600, 369]",FootwearType_v6,train
E:\something\msd\Papers\Learning to Learn from Noisy Labeled Data\MLNT\footweartype\ae91d365-562a-56ad-825d-99e2f5f5afbf.jpg,Pumps,"[142, 422, 430, 784]",FootwearType_v6,train
E:\something\msd\Papers\Learning to Learn from Noisy Labeled Data\MLNT\footweartype\47834520-f046-535b-a706-2eaa5c193676.jpg,Pumps,"[26, 44, 243, 205]",FootwearType_v6,train
E:\something\msd\Papers\Learning to Learn from Noisy Labeled Data\MLNT\footweartype\5f0b20f2-fca7-5232-bb65-c05d0fff57e9.jpg,Pumps,"[27, 23, 344, 264]",FootwearType_v6,train
E:\something\msd\Papers\Learning to Learn from Noisy Labeled Data\MLNT\footweartype\5febbf52-75f8-508c-aed6-08025d744e30.jpg,Pumps,"[39, 45, 257, 251]",FootwearType_v6,train
E:\something\msd\Papers\Learning to Learn from Noisy Labeled Data\MLNT\footweartype\68606388-4f92-51d5-b152-e51fbbc1d463.jpg,Pumps,"[0, 73, 395, 376]",FootwearType_v6,train
E:\something\msd\Papers\Learning to Learn from Noisy Labeled Data\MLNT\footweartype\da4a1dda-0b6c-507a-9eab-359e672e4d24.jpg,Pumps,"[227, 49, 545, 483]",FootwearType_v6,train
E:\something\msd\Papers\Learning to Learn from Noisy Labeled Data\MLNT\footweartype\b8298e32-8629-5703-87e4-adbd4380bc3e.jpg,Pumps,"[0, 39, 450, 434]",FootwearType_v6,train
E:\something\msd\Papers\Learning to Learn from Noisy Labeled Data\MLNT\footweartype\b6e78e21-9c9a-5907-bf64-a51cd99f3ac8.jpg,Pumps,"[0, 301, 1200, 1023]",FootwearType_v6,train
E:\something\msd\Papers\Learning to Learn from Noisy Labeled Data\MLNT\footweartype\306488e9-612f-5977-ab13-d73e2cdf67ff.jpg,Pumps,"[17, 119, 325, 472]",FootwearType_v6,train
E:\something\msd\Papers\Learning to Learn from Noisy Labeled Data\MLNT\footweartype\5ed86423-a566-558d-b2fc-c58242ffdf9f.jpg,Pumps,"[336, 420, 1650, 1533]",FootwearType_v6,train
E:\something\msd\Papers\Learning to Learn from Noisy Labeled Data\MLNT\footweartype\b4a7e877-9c1b-5ad1-ad41-5b031567056a.jpg,Pumps,"[25, 96, 302, 333]",FootwearType_v6,train
E:\something\msd\Papers\Learning to Learn from Noisy Labeled Data\MLNT\footweartype\8e37679b-5c9e-5b76-8a2b-eaf377d7820d.jpg,Pumps,"[0, 198, 600, 495]",FootwearType_v6,train
E:\something\msd\Papers\Learning to Learn from Noisy Labeled Data\MLNT\footweartype\5c72baca-50be-5dee-b77e-d65ec7a80579.jpg,Pumps,"[299, 220, 424, 551]",FootwearType_v6,train
E:\something\msd\Papers\Learning to Learn from Noisy Labeled Data\MLNT\footweartype\a7fb7ca3-1929-5d69-81ba-90f5bb88e2f9.jpg,Pumps,"[25, 31, 558, 538]",FootwearType_v6,train
E:\something\msd\Papers\Learning to Learn from Noisy Labeled Data\MLNT\footweartype\0c47a6db-0323-5988-9ddc-e9bd085b03e4.jpg,Pumps,"[131, 388, 1035, 1042]",FootwearType_v6,train
E:\something\msd\Papers\Learning to Learn from Noisy Labeled Data\MLNT\footweartype\0c47a6db-0323-5988-9ddc-e9bd085b03e4.jpg,Pumps,"[1, 46, 761, 764]",FootwearType_v6,train
E:\something\msd\Papers\Learning to Learn from Noisy Labeled Data\MLNT\footweartype\adcefcde-c900-516e-909b-3611ccfb5d39.jpg,Pumps,"[0, 0, 668, 595]",FootwearType_v6,train
E:\something\msd\Papers\Learning to Learn from Noisy Labeled Data\MLNT\footweartype\385cdf8f-40f5-537b-a934-eb868b696a60.jpg,Pumps,"[0, 0, 400, 400]",FootwearType_v6,train
E:\something\msd\Papers\Learning to Learn from Noisy Labeled Data\MLNT\footweartype\d38c4387-b23f-5e2b-b128-f4722bf8130a.jpg,Pumps,"[61, 109, 398, 450]",FootwearType_v6,train
E:\something\msd\Papers\Learning to Learn from Noisy Labeled Data\MLNT\footweartype\33f6a14e-fd30-5751-9fcc-cbefb753880b.jpg,Pumps,"[45, 151, 950, 820]",FootwearType_v6,train
E:\something\msd\Papers\Learning to Learn from Noisy Labeled Data\MLNT\footweartype\d928d803-9b46-58ee-9a02-b517a1e9b2e3.jpg,Pumps,"[4, 48, 299, 365]",FootwearType_v6,train
E:\something\msd\Papers\Learning to Learn from Noisy Labeled Data\MLNT\footweartype\d4018df9-6d12-5e75-b898-e42581e2a994.jpg,Pumps,"[23, 9, 266, 286]",FootwearType_v6,train
E:\something\msd\Papers\Learning to Learn from Noisy Labeled Data\MLNT\footweartype\fc52be73-efd8-5f4b-979e-c97e2bcd570c.jpg,Pumps,"[12, 18, 238, 226]",FootwearType_v6,train
E:\something\msd\Papers\Learning to Learn from Noisy Labeled Data\MLNT\footweartype\5e006aa7-8fcf-59c1-b28c-5a24daf86b8c.jpg,Pumps,"[378, 356, 863, 888]",FootwearType_v6,train
